strict digraph grafo3 {
	graph [bb="0,0,712,402", id=grafo3, overlap=False];
	node [label="\N", fontsize=8, shape=rectangle, style=filled];
	0 [label="Carlos Hitoshi Morimoto [0]", URL="http://lattes.cnpq.br/4575931307749163", color="#990000", fontcolor="#FFFFFF", height="0.25", pos="282,393", width="1.8611"];
	1 [label="João Eduardo Ferreira [2]", URL="http://lattes.cnpq.br/0131770792108992", color="#990000", fontcolor="#FFFFFF", height="0.25", pos="428,393", width="1.6944"];
	2 [label="Junior Barrera [34]", URL="http://lattes.cnpq.br/0362417828475021", color="#990000", fontcolor="#FFFFFF", height="0.25", pos="427,329", width="1.3333"];
	4 [label="Nina S. Tomita Hirata [13]", URL="http://lattes.cnpq.br/0644408634493034", color="#990000", fontcolor="#FFFFFF", height="0.25", pos="159,137", width="1.75"];
	6 [label="Roberto M. Cesar Junior [25]", URL="http://lattes.cnpq.br/2240951178648368", color="#990000", fontcolor="#FFFFFF", height="0.25", pos="534,137", width="1.8889"];
	5 [label="Roberto Hirata Junior [16]", URL="http://lattes.cnpq.br/1647118503085126", color="#990000", fontcolor="#FFFFFF", height="0.25", pos="346,265", width="1.7222"];
	7 [label="Ronaldo Fumio Hashimoto [13]", URL="http://lattes.cnpq.br/9283304583756076", color="#990000", fontcolor="#FFFFFF", height="0.25", pos="402,201", width="2.0278"];
	9 [label="Andréa Britto Mattos [2]", URL="http://lattes.cnpq.br/2837012019824386", color="#000099", fontcolor="#FFFFFF", height="0.25", pos="536,9", width="1.6389"];
	8 [label="Jesús P. Mena Chalco [11]", URL="http://lattes.cnpq.br/4727357182510680", color="#006600", fontcolor="#FFFFFF", height="0.25", pos="614,73", width="1.75"];
	3 [label="Marcel Parolin Jackowski [0]", URL="http://lattes.cnpq.br/0926213060635986", color="#990000", fontcolor="#FFFFFF", height="0.25", pos="574,393", width="1.8611"];
	1 -> 2 [arrowhead=normal, arrowsize="0.75", fontsize=8, label="0.5", lp="417,361", penwidth="2.0", pos="e,418.62,338.15 419.82,383.71 416.04,378.81 411.96,372.47 410,366 407.8,358.75 410.43,351.08 414.22,344.61"];
	1 -> 4 [arrowhead=normal, arrowsize="0.75", fontsize=8, label="0.25", lp="9.5,265", penwidth="1.25", pos="e,95.971,145.26 366.94,384.89 363.92,384.57 360.93,384.27 358,384 287.74,377.5 106.11,393.18 41,366 18.349,356.54 0,353.55 0,329\
 0,329 0,329 0,201 0,176.45 19.223,175.32 41,164 55.633,156.39 72.384,150.91 88.579,146.97"];
	1 -> 6 [arrowhead=normal, arrowsize="0.75", fontsize=8, label="0.25", lp="647.5,265", penwidth="1.25", pos="e,578.11,146.04 472.54,383.96 534.18,370.82 638,346.15 638,329 638,329 638,329 638,201 638,173.68 611.64,157.64 585.46,148.46"];
	2 -> 4 [arrowhead=normal, arrowsize="0.75", fontsize=8, label="0.24", lp="216.5,233", penwidth="1.22", pos="e,160.71,146.27 385.78,319.91 338.39,307.79 260.29,282.51 207,238 181.43,216.65 179.11,205.4 168,174 165.71,167.51 163.79,160.19\
 162.32,153.78"];
	2 -> 6 [arrowhead=normal, arrowsize="0.75", fontsize=8, label="0.25", lp="530.5,233", penwidth="1.25", pos="e,533.61,146.16 447.72,319.97 456.52,315.45 466.46,309.36 474,302 518.56,258.5 521.71,235.58 531,174 531.98,167.52 532.65,160.34\
 533.11,154.05"];
	2 -> 5 [arrowhead=normal, arrowsize="0.75", fontsize=8, label="0.22", lp="373.5,297", penwidth="1.16", pos="e,348.4,274.01 393.95,319.91 383.42,315.77 372.35,309.96 364,302 358.08,296.35 353.85,288.35 350.99,281.23"];
	2 -> 7 [arrowhead=normal, arrowsize="0.75", fontsize=8, label="0.26", lp="477.5,265", penwidth="1.28", pos="e,431.73,210.04 440.59,319.81 446.65,315.1 453.44,308.91 458,302 469.46,284.6 470.23,276.58 467,256 464.98,243.09 466.58,237.86 \
458,228 452.79,222.02 445.96,217.24 438.86,213.48"];
	2 -> 1 [arrowhead=normal, arrowsize="0.75", fontsize=8, label="0.03", lp="436.5,361", penwidth="0.59", pos="e,427.86,383.83 427.14,338.15 427.3,348.03 427.55,363.98 427.74,376.14"];
	4 -> 2 [arrowhead=normal, arrowsize="0.75", fontsize=8, label="0.62", lp="183.5,233", penwidth="2.36", pos="e,378.7,321.02 157.9,146.02 156.08,164.87 154.4,209.1 174,238 190.4,262.18 203.12,260.44 229,274 258.32,289.36 266.34,292.35 298\
,302 321.6,309.19 348.2,315.12 371.09,319.56"];
	4 -> 5 [arrowhead=normal, arrowsize="0.75", fontsize=8, label="0.27", lp="252.5,201", penwidth="1.31", pos="e,316.79,255.99 172.26,146.17 179.43,151.25 188.35,157.78 196,164 234.1,194.95 236.31,212.09 278,238 287.73,244.05 299.04,249.18\
 309.62,253.3"];
	4 -> 7 [arrowhead=normal, arrowsize="0.75", fontsize=8, label="0.08", lp="305.5,169", penwidth="0.74", pos="e,367.7,191.97 193.52,146.09 237.46,157.66 313.31,177.64 360.4,190.04"];
	4 -> 1 [arrowhead=normal, arrowsize="0.75", fontsize=8, label="0.04", lp="64.5,265", penwidth="0.62", pos="e,366.82,384.05 114.89,146.04 86.549,154.73 55,171.11 55,201 55,329 55,329 55,329 55,336.63 251.46,366.89 359.22,382.92"];
	6 -> 2 [arrowhead=normal, arrowsize="0.75", fontsize=8, label="0.34", lp="555.5,233", penwidth="1.52", pos="e,456.19,319.92 538.8,146.22 541.17,151.31 543.79,157.84 545,164 551.32,196.28 554.36,206.78 544,238 532.45,272.78 522.08,281.06\
 492,302 483.28,308.07 472.99,313.13 463.2,317.16"];
	6 -> 9 [arrowhead=normal, arrowsize="0.75", fontsize=8, label="0.02", lp="482.5,73", penwidth="0.56", pos="e,518.55,18.006 516.66,127.97 495.03,115.35 462.12,90.955 473,64 480.35,45.786 497.53,31.463 512.09,22.005"];
	6 -> 8 [arrowhead=normal, arrowsize="0.75", fontsize=8, label="0.38", lp="575.5,105", penwidth="1.64", pos="e,594.34,82.097 540.6,127.69 546.6,119.68 556,108.17 566,100 572.44,94.737 580.05,89.933 587.28,85.883"];
	6 -> 5 [arrowhead=normal, arrowsize="0.75", fontsize=8, label="0.16", lp="310.5,201", penwidth="0.98", pos="e,334.97,255.81 465.73,142.17 406.11,147.21 327.22,155.37 315,164 297.54,176.33 293.82,189.87 301,210 306.67,225.88 319.11,240.48\
 329.48,250.64"];
	6 -> 7 [arrowhead=normal, arrowsize="0.75", fontsize=8, label="0.08", lp="487.5,169", penwidth="0.74", pos="e,420.73,191.86 515.07,146.11 504.21,151.33 490.34,158.02 478,164 461.2,172.14 442.34,181.32 427.6,188.51"];
	6 -> 1 [arrowhead=normal, arrowsize="0.75", fontsize=8, label="0.02", lp="702.5,265", penwidth="0.56", pos="e,489.13,384.31 579.14,146.01 626.15,156.72 693,176.3 693,201 693,329 693,329 693,329 693,349.2 575.12,370.93 496.6,383.15"];
	7 -> 2 [arrowhead=normal, arrowsize="0.75", fontsize=8, label="0.69", lp="429.5,265", penwidth="2.57", pos="e,426.14,319.95 404.92,210.25 408.26,221.11 413.68,239.71 417,256 420.89,275.07 423.69,297.26 425.32,312.12"];
	7 -> 4 [arrowhead=normal, arrowsize="0.75", fontsize=8, label="0.08", lp="354.5,169", penwidth="0.74", pos="e,222.15,143.92 385,191.89 368.56,183.45 342.71,171.16 319,164 290.28,155.33 257.77,149.2 229.59,145"];
	7 -> 6 [arrowhead=normal, arrowsize="0.75", fontsize=8, label="0.15", lp="445.5,169", penwidth="0.95", pos="e,480.41,146.03 408.19,191.72 414.3,183.28 424.39,171.09 436,164 447.21,157.16 460.17,152.01 472.94,148.15"];
	7 -> 5 [arrowhead=normal, arrowsize="0.75", fontsize=8, label="0.08", lp="359.5,233", penwidth="0.74", pos="e,344.72,255.97 372.91,210.01 364.2,214.13 355.51,219.94 350,228 346.05,233.77 344.73,241.28 344.51,248.03"];
	5 -> 2 [arrowhead=normal, arrowsize="0.75", fontsize=8, label="0.47", lp="404.5,297", penwidth="1.91", pos="e,416.68,319.97 358.83,274.03 366.03,279.18 375.11,285.82 383,292 392.39,299.36 402.6,307.91 410.82,314.94"];
	5 -> 4 [arrowhead=normal, arrowsize="0.75", fontsize=8, label="0.22", lp="213.5,201", penwidth="1.16", pos="e,162.67,146.2 298.8,255.99 268.66,248.17 230.43,234.18 204,210 186.44,193.94 173.27,169.47 165.85,153.36"];
	5 -> 6 [arrowhead=normal, arrowsize="0.75", fontsize=8, label="0.25", lp="509.5,201", penwidth="1.25", pos="e,529.83,146.39 385.48,255.95 414.96,247.7 455,233.2 484,210 503.35,194.52 518.16,169.57 526.48,153.22"];
	5 -> 7 [arrowhead=normal, arrowsize="0.75", fontsize=8, label="0.06", lp="390.5,233", penwidth="0.68", pos="e,395.38,210.06 355.78,255.77 361.04,250.68 367.55,244.15 373,238 379.09,231.13 385.43,223.15 390.62,216.37"];
	9 -> 8 [arrowhead=normal, arrowsize="0.75", fontsize=8, label="0.75", lp="603.5,41", penwidth="2.75", pos="e,608.42,63.938 556.72,18.084 565.93,22.687 576.57,28.826 585,36 592.18,42.108 598.78,50.236 603.87,57.318"];
	9 -> 6 [arrowhead=normal, arrowsize="0.75", fontsize=8, label="0.25", lp="532.5,73", penwidth="1.25", pos="e,530.96,127.58 533.12,18.225 529.91,29.057 524.91,47.627 523,64 520.75,83.334 525.04,105.42 528.9,120.19"];
	8 -> 9 [arrowhead=normal, arrowsize="0.75", fontsize=8, label="0.14", lp="575.5,41", penwidth="0.92", pos="e,541.86,18.029 593.77,63.783 584.76,59.153 574.33,53.03 566,46 558.55,39.711 551.6,31.367 546.27,24.194"];
	8 -> 6 [arrowhead=normal, arrowsize="0.75", fontsize=8, label="0.86", lp="604.5,105", penwidth="3.08", pos="e,555.83,127.94 608.45,82.101 603.18,90.185 594.64,101.94 585,110 578.35,115.56 570.37,120.45 562.72,124.48"];
}
